{
	"info": {
		"_postman_id": "5c5ba786-ee24-483a-871f-b48e4e3a34da",
		"name": "Macquarie",
		"schema": "https://schema.getpostman.com/json/collection/v2.1.0/collection.json"
	},
	"item": [
		{
			"name": "Accounts",
			"request": {
				"method": "GET",
				"header": [
					{
						"key": "client_id",
						"value": "{{client_id}}"
					}
				],
				"body": {},
				"url": {
					"raw": "https://sandbox.api.macquariebank.io/connect/v1/accounts",
					"protocol": "https",
					"host": [
						"sandbox",
						"api",
						"macquariebank",
						"io"
					],
					"path": [
						"connect",
						"v1",
						"accounts"
					]
				}
			},
			"response": []
		},
		{
			"name": "Account Balances",
			"request": {
				"method": "GET",
				"header": [
					{
						"key": "client_id",
						"value": "{{client_id}}"
					}
				],
				"body": {},
				"url": {
					"raw": "https://sandbox.api.macquariebank.io/connect/v1/accounts/{{account_id}}/balances",
					"protocol": "https",
					"host": [
						"sandbox",
						"api",
						"macquariebank",
						"io"
					],
					"path": [
						"connect",
						"v1",
						"accounts",
						"{{account_id}}",
						"balances"
					]
				}
			},
			"response": []
		},
		{
			"name": "Account Transactions",
			"request": {
				"method": "GET",
				"header": [
					{
						"key": "client_id",
						"value": "{{client_id}}"
					}
				],
				"body": {},
				"url": {
					"raw": "https://sandbox.api.macquariebank.io/connect/v1/accounts/{{account_id}}/transactions",
					"protocol": "https",
					"host": [
						"sandbox",
						"api",
						"macquariebank",
						"io"
					],
					"path": [
						"connect",
						"v1",
						"accounts",
						"{{account_id}}",
						"transactions"
					]
				}
			},
			"response": []
		}
	],
	"auth": {
		"type": "bearer",
		"bearer": [
			{
				"key": "token",
				"value": "{{access_token}}",
				"type": "string"
			}
		]
	},
	"event": [
		{
			"listen": "prerequest",
			"script": {
				"id": "f602a855-93c4-4f55-9758-5bb15ffd8835",
				"type": "text/javascript",
				"exec": [
					""
				]
			}
		},
		{
			"listen": "test",
			"script": {
				"id": "00241a53-c746-4dfb-852a-242390e7cd54",
				"type": "text/javascript",
				"exec": [
					""
				]
			}
		}
	],
	"variable": [
		{
			"id": "8e70ed72-a5c4-42a9-bb50-d81279d231d6",
			"key": "access_token",
			"value": "",
			"type": "string"
		},
		{
			"id": "f5151197-0132-408d-b130-9c7213b8c63f",
			"key": "client_id",
			"value": "",
			"type": "string"
		},
		{
			"id": "1d3030de-1568-4fe4-b786-3570092db3c1",
			"key": "account_id",
			"value": "7a1b7012-8d71-411a-ac2b-b5006febe8a0",
			"type": "string"
		}
	]
}